%YAML 1.1
%TAG !u! tag:unity3d.com,2011:
--- !u!1045 &1
EditorBuildSettings:
  m_ObjectHideFlags: 0
  serializedVersion: 2
  m_Scenes:
  - enabled: 0
    path: 
    guid: 00000000000000000000000000000000
  - enabled: 1
    path: Assets/Scenes/MainMenu.unity
    guid: 653473941e8693b4bbb8414c4180b2c2
  - enabled: 1
    path: Assets/Scenes/Game.unity
    guid: 985741c49333f8c47aba4e400e01cf58
  - enabled: 1
    path: Assets/Scenes/Credits.unity
    guid: ccbf419a52005634895a680eca46ca68
  m_configObjects: {}
